<svg width="120" height="40" viewBox="0 0 120 40" fill="none" xmlns="http://www.w3.org/2000/svg">
<path d="M110.135 7.92969e-06H9.53468C9.16798 7.92969e-06 8.80568 7.92951e-06 8.43995 0.00200793C8.1338 0.00400793 7.83009 0.00981793 7.521 0.0147079C6.84951 0.0226097 6.17961 0.0816842 5.5171 0.191418C4.85552 0.303541 4.21467 0.514924 3.61622 0.818418C3.0185 1.12448 2.47235 1.52218 1.99757 1.99708C1.5203 2.47064 1.12246 3.01802 0.81935 3.61817C0.5154 4.21712 0.304641 4.85895 0.19435 5.52149C0.0830109 6.18319 0.0230984 6.85253 0.01515 7.52349C0.00587 7.83009 0.00489 8.13771 0 8.44435V31.5586C0.00489 31.8691 0.00587 32.1699 0.01515 32.4805C0.0231008 33.1514 0.0830134 33.8207 0.19435 34.4824C0.304336 35.1453 0.515108 35.7875 0.81935 36.3867C1.12233 36.9849 1.52022 37.5301 1.99757 38.001C2.47054 38.478 3.01705 38.876 3.61622 39.1797C4.21467 39.484 4.85545 39.6967 5.5171 39.8105C6.17972 39.9194 6.84956 39.9785 7.521 39.9873C7.83009 39.9941 8.1338 39.998 8.43995 39.998C8.80567 40 9.168 40 9.53468 40H110.135C110.494 40 110.859 40 111.219 39.998C111.523 39.998 111.836 39.9941 112.141 39.9873C112.811 39.9789 113.479 39.9198 114.141 39.8105C114.804 39.6959 115.448 39.4833 116.049 39.1797C116.647 38.8758 117.193 38.4779 117.666 38.001C118.142 37.5282 118.541 36.9835 118.848 36.3867C119.15 35.7871 119.358 35.145 119.467 34.4824C119.578 33.8206 119.64 33.1515 119.652 32.4805C119.656 32.1699 119.656 31.8691 119.656 31.5586C119.664 31.1953 119.664 30.834 119.664 30.4648V9.53614C119.664 9.16993 119.664 8.80665 119.656 8.44435C119.656 8.13771 119.656 7.83009 119.652 7.52345C119.64 6.85243 119.578 6.18324 119.467 5.52145C119.358 4.85929 119.149 4.21751 118.848 3.61813C118.23 2.4152 117.252 1.43603 116.049 0.818328C115.448 0.515575 114.804 0.304248 114.141 0.191328C113.48 0.0811107 112.811 0.0220157 112.141 0.0145679C111.836 0.00968793 111.523 0.00382793 111.219 0.00187793C110.859 -0.00012207 110.494 -0.00012207 110.135 -0.00012207V7.92969e-06Z" fill="#A6A6A6"/>
<path d="M8.44487 39.125C8.14019 39.125 7.84287 39.1211 7.54058 39.1143C6.91436 39.1061 6.2896 39.0516 5.67144 38.9512C5.09503 38.8519 4.53664 38.6673 4.0147 38.4033C3.49754 38.1415 3.02585 37.7983 2.6177 37.3867C2.20364 36.98 1.85891 36.5082 1.59719 35.9902C1.33258 35.4688 1.14945 34.9099 1.05419 34.333C0.951311 33.7131 0.895651 33.0863 0.887687 32.458C0.881347 32.2471 0.873047 31.5449 0.873047 31.5449V8.44434C0.873047 8.44434 0.881887 7.75293 0.887737 7.5498C0.895363 6.92248 0.950699 6.29665 1.05327 5.67773C1.14871 5.09925 1.33197 4.53875 1.59673 4.01563C1.85749 3.49794 2.2003 3.02586 2.61187 2.61768C3.02297 2.20562 3.49617 1.8606 4.01421 1.59521C4.53495 1.33209 5.09228 1.14873 5.66753 1.05127C6.28772 0.949836 6.91465 0.894996 7.54304 0.88721L8.44536 0.875H111.214L112.127 0.8877C112.75 0.895099 113.371 0.94945 113.985 1.05029C114.566 1.14898 115.13 1.33362 115.656 1.59814C116.694 2.13299 117.539 2.97916 118.071 4.01807C118.332 4.53758 118.512 5.09351 118.607 5.66699C118.71 6.29099 118.768 6.92174 118.78 7.5542C118.783 7.8374 118.783 8.1416 118.783 8.44434C118.791 8.81934 118.791 9.17627 118.791 9.53613V30.4648C118.791 30.8281 118.791 31.1826 118.783 31.54C118.783 31.8652 118.783 32.1631 118.779 32.4697C118.768 33.0909 118.711 33.7104 118.608 34.3232C118.515 34.9043 118.333 35.4675 118.068 35.9932C117.805 36.5056 117.462 36.9733 117.053 37.3789C116.644 37.7927 116.172 38.1379 115.653 38.4014C115.128 38.6674 114.566 38.8527 113.985 38.9512C113.367 39.0522 112.742 39.1067 112.116 39.1143C111.823 39.1211 111.517 39.125 111.219 39.125L110.135 39.127L8.44487 39.125Z" fill="black"/>
<path d="M24.769 20.3007C24.7908 18.6042 25.6802 17.0372 27.1256 16.1486C26.2096 14.8405 24.7305 14.0409 23.1344 13.991C21.4552 13.8147 19.8272 14.9958 18.9715 14.9958C18.0992 14.9958 16.7817 14.0085 15.363 14.0376C13.4963 14.098 11.7982 15.1335 10.8901 16.7655C8.95607 20.1139 10.3987 25.035 12.2513 27.7416C13.1782 29.0669 14.2615 30.5474 15.6789 30.4949C17.066 30.4374 17.584 29.6104 19.2583 29.6104C20.9171 29.6104 21.4031 30.4949 22.8493 30.4615C24.3377 30.4374 25.2754 29.1303 26.1698 27.7924C26.8358 26.848 27.3483 25.8043 27.6882 24.6999C25.9205 23.9522 24.7711 22.22 24.769 20.3007Z" fill="white"/>
<path d="M22.0373 12.2109C22.8489 11.2367 23.2487 9.98451 23.1519 8.72028C21.912 8.8505 20.7668 9.44306 19.9443 10.3799C19.1321 11.3042 18.7207 12.5134 18.8006 13.7413C20.057 13.7542 21.25 13.1902 22.0373 12.2109Z" fill="white"/>
<path fill-rule="evenodd" clip-rule="evenodd" d="M37.5688 27.1397H42.3022L43.438 30.4961H45.477L40.9936 18.0781H38.9106L34.4272 30.4961H36.4321L37.5688 27.1397ZM41.8111 25.5908H38.0591L39.9097 20.1436H39.9615L41.8111 25.5908Z" fill="white"/>
<path fill-rule="evenodd" clip-rule="evenodd" d="M51.3814 30.5908C53.6538 30.5908 55.1597 28.7832 55.1597 25.9697C55.1597 23.164 53.645 21.3476 51.3472 21.3476C50.1648 21.3095 49.0572 21.9245 48.4644 22.9482H48.4302V21.4424H46.6313V33.4912H48.4897V29.0068H48.5327C49.1003 30.037 50.2068 30.6522 51.3814 30.5908ZM50.857 22.9316C52.3023 22.9316 53.2495 24.1367 53.2495 25.9697C53.2495 27.8193 52.3023 29.0156 50.857 29.0156C49.437 29.0156 48.482 27.7939 48.482 25.9697C48.482 24.1621 49.437 22.9316 50.857 22.9316Z" fill="white"/>
<path fill-rule="evenodd" clip-rule="evenodd" d="M61.3462 30.5908C63.6187 30.5908 65.1245 28.7832 65.1245 25.9698C65.1245 23.1641 63.6099 21.3477 61.312 21.3477C60.1296 21.3095 59.022 21.9245 58.4292 22.9483H58.395V21.4424H56.5962V33.4912H58.4546V29.0068H58.4976C59.0652 30.0371 60.1716 30.6523 61.3462 30.5908ZM60.8218 22.9317C62.2671 22.9317 63.2144 24.1368 63.2144 25.9698H63.2144C63.2144 27.8194 62.2671 29.0157 60.8218 29.0157C59.4019 29.0157 58.4468 27.794 58.4468 25.9698C58.4468 24.1621 59.4019 22.9317 60.8218 22.9317Z" fill="white"/>
<path d="M71.7105 27.0361C71.8482 28.2676 73.0445 29.0761 74.6792 29.0761C76.2456 29.0761 77.3726 28.2675 77.3726 27.1572C77.3726 26.1933 76.6929 25.6162 75.0835 25.2207L73.4742 24.833C71.1939 24.2822 70.1353 23.2158 70.1353 21.4853C70.1353 19.3427 72.0025 17.871 74.6538 17.871C77.2778 17.871 79.0767 19.3427 79.1372 21.4853H77.2612C77.1489 20.246 76.1245 19.498 74.6274 19.498C73.1304 19.498 72.106 20.2548 72.106 21.3564C72.106 22.2343 72.7603 22.7509 74.3608 23.1464L75.729 23.4823C78.2769 24.0849 79.3355 25.1083 79.3355 26.9247C79.3355 29.248 77.4849 30.703 74.5415 30.703C71.7876 30.703 69.9282 29.2821 69.8081 27.036L71.7105 27.0361Z" fill="white"/>
<path d="M83.3462 19.2998V21.4424H85.0679V22.9141H83.3462V27.9053C83.3462 28.6807 83.6909 29.042 84.4477 29.042C84.6521 29.0384 84.8562 29.0241 85.0591 28.999V30.4619C84.7188 30.5255 84.3729 30.5543 84.0268 30.5478C82.1938 30.5478 81.479 29.8593 81.479 28.1035V22.9141H80.1626V21.4424H81.479V19.2998H83.3462Z" fill="white"/>
<path fill-rule="evenodd" clip-rule="evenodd" d="M90.3589 21.3311C87.7427 21.3311 86.0649 23.1211 86.0649 25.9697C86.0649 28.8262 87.726 30.6084 90.3589 30.6084C92.9927 30.6084 94.6538 28.8262 94.6538 25.9697C94.6538 23.1211 92.9839 21.3311 90.3589 21.3311ZM90.3589 22.8623C91.8647 22.8623 92.7603 24.0156 92.7603 25.9697H92.7602C92.7602 27.9316 91.8647 29.0762 90.3589 29.0762C88.853 29.0762 87.9585 27.9316 87.9585 25.9697C87.9585 24.0244 88.853 22.8623 90.3589 22.8623Z" fill="white"/>
<path d="M96.186 21.4424H97.9585V22.9834H98.0015C98.2487 21.9914 99.1576 21.3087 100.179 21.3477C100.393 21.3469 100.607 21.3702 100.816 21.417V23.1553C100.546 23.0727 100.264 23.0347 99.981 23.043C99.4346 23.0208 98.9059 23.2386 98.5335 23.639C98.1612 24.0395 97.9826 24.5827 98.0444 25.126V30.4961H96.186L96.186 21.4424Z" fill="white"/>
<path fill-rule="evenodd" clip-rule="evenodd" d="M105.486 30.6084C107.534 30.6084 109.134 29.4805 109.384 27.8369L107.62 27.8369C107.281 28.677 106.431 29.1948 105.529 29.1103C104.853 29.1352 104.198 28.8684 103.732 28.3778C103.266 27.8871 103.034 27.2199 103.093 26.5459V26.4336H109.488V25.7969C109.488 23.0518 107.913 21.3311 105.408 21.3311C102.861 21.3311 101.217 23.1729 101.217 26.0127C101.217 28.8437 102.852 30.6084 105.486 30.6084ZM107.628 25.1348L103.102 25.1348C103.1 24.5235 103.343 23.9369 103.776 23.5054C104.209 23.0739 104.796 22.8333 105.408 22.8369C106.014 22.8239 106.599 23.0644 107.02 23.5006C107.442 23.9368 107.662 24.5291 107.628 25.1348Z" fill="white"/>
<path d="M36.7383 11.2534H37.5361C37.8138 11.288 38.0933 11.2049 38.307 11.0242C38.5206 10.8436 38.649 10.5818 38.6611 10.3022C38.6611 9.75194 38.2471 9.39647 37.5449 9.39647C37.2606 9.35675 36.9724 9.43362 36.7456 9.60961C36.5189 9.78561 36.3729 10.0458 36.3408 10.331H35.4648C35.4953 9.81295 35.7396 9.33081 36.1394 8.99989C36.5392 8.66898 37.0586 8.51904 37.5732 8.58592C38.748 8.58592 39.5752 9.24363 39.5752 10.1904C39.5809 10.844 39.1291 11.4128 38.4912 11.5552V11.6255C39.2552 11.6594 39.8483 12.3042 39.8184 13.0683C39.7635 13.6014 39.4963 14.09 39.077 14.4237C38.6577 14.7575 38.1217 14.9084 37.5898 14.8423C37.0568 14.9149 36.5171 14.768 36.0946 14.4351C35.672 14.1022 35.4028 13.6119 35.3486 13.0766H36.2383C36.292 13.6474 36.8164 14.0156 37.5898 14.0156C38.3633 14.0156 38.8682 13.6021 38.8682 13.0191C38.8682 12.4278 38.3926 12.0635 37.5615 12.0635H36.7383V11.2534Z" fill="white"/>
<path fill-rule="evenodd" clip-rule="evenodd" d="M42.5039 12.0801C41.4336 12.1465 40.8291 12.6138 40.8291 13.4243C40.8306 13.8086 40.9946 14.1744 41.2806 14.4311C41.5666 14.6879 41.9478 14.8117 42.3301 14.7719C42.8754 14.7972 43.3921 14.5271 43.6826 14.0649H43.7529V14.6978H44.6094V11.6211C44.6094 10.6699 43.9727 10.1079 42.8438 10.1079C41.8223 10.1079 41.0938 10.604 41.0029 11.3774H41.8633C41.9629 11.0591 42.3057 10.877 42.8018 10.877C43.4102 10.877 43.7236 11.1455 43.7236 11.6211V12.0098L42.5039 12.0801ZM43.7236 12.6631V13.0395C43.7042 13.3265 43.5691 13.5934 43.3493 13.7789C43.1295 13.9645 42.8438 14.0529 42.5576 14.0239C42.0742 14.0239 41.7226 13.7881 41.7226 13.3828C41.7226 12.9858 42.0039 12.7749 42.624 12.7334L43.7236 12.6631Z" fill="white"/>
<path d="M46.9678 10.9429V14.6978H46.0791V10.1948H49.044V10.9428L46.9678 10.9429Z" fill="white"/>
<path fill-rule="evenodd" clip-rule="evenodd" d="M52.5693 14.772C53.7061 14.772 54.4297 13.875 54.4297 12.4444C54.4297 11.0132 53.706 10.1201 52.5605 10.1202C51.9728 10.1057 51.4265 10.422 51.1465 10.939H51.0801V10.1948H50.2246V16.1948H51.1133V14.0156H51.1836C51.4591 14.5159 51.9996 14.8109 52.5693 14.772ZM52.3125 10.9185C53.0654 10.9185 53.5156 11.4932 53.5156 12.4444C53.5156 13.3994 53.0654 13.9741 52.3086 13.9741C51.5645 13.9741 51.0967 13.3867 51.0967 12.4483C51.0967 11.5054 51.5645 10.9185 52.3125 10.9185Z" fill="white"/>
<path d="M55.6133 16.3106V15.5454C55.7095 15.5576 55.8064 15.5632 55.9033 15.562C56.2954 15.5911 56.6464 15.3202 56.7178 14.9336L56.7842 14.7144L55.1543 10.1948H56.1221L57.251 13.7715H57.3213L58.4463 10.1948H59.3887L57.71 14.8838C57.3252 15.9795 56.8995 16.3311 55.9815 16.3311C55.9073 16.3311 55.6963 16.3228 55.6133 16.3106Z" fill="white"/>
<path d="M60.0811 13.4199H60.9658C61.0527 13.8169 61.4248 14.0239 61.9453 14.0239C62.5371 14.0239 62.9004 13.7632 62.9004 13.3579C62.9004 12.9238 62.5742 12.7168 61.9453 12.7168H61.2715V12.0264H61.9336C62.4707 12.0264 62.7441 11.8198 62.7441 11.4434C62.7441 11.1128 62.4795 10.8604 61.9336 10.8604C61.4365 10.8604 61.0732 11.0713 61.0156 11.4268H60.1592C60.2924 10.577 61.0815 9.99048 61.9336 10.1079C63.0039 10.1079 63.6162 10.5918 63.6162 11.3525C63.6265 11.7891 63.3301 12.1734 62.9053 12.2744V12.3447C63.4133 12.4103 63.7919 12.8457 63.7861 13.3579C63.7861 14.2139 63.0576 14.7803 61.9453 14.7803C60.9619 14.7802 60.1631 14.3296 60.0811 13.4199Z" fill="white"/>
<path d="M65.0659 14.6978V10.1948H65.9468V13.292H66.0171L68.0923 10.1948H68.9731V14.6978H68.0923V11.584H68.0259L65.9468 14.6978L65.0659 14.6978Z" fill="white"/>
<path d="M73.8257 10.9429H72.4077V14.6978H71.5181V10.9429H70.1001V10.1949H73.8257V10.9429Z" fill="white"/>
<path fill-rule="evenodd" clip-rule="evenodd" d="M76.6606 14.7847C77.5408 14.8798 78.3628 14.3312 78.6127 13.482L77.7563 13.4819C77.5433 13.8641 77.1204 14.0798 76.686 14.0278C76.3506 14.0319 76.0291 13.8941 75.8007 13.6484C75.5723 13.4027 75.4583 13.072 75.4868 12.7378V12.688H78.6664V12.3779C78.6664 10.9639 77.9096 10.1079 76.6567 10.1079C76.0547 10.1028 75.4801 10.3591 75.0818 10.8105C74.6835 11.2618 74.5006 11.8638 74.5805 12.4605C74.4984 13.0555 74.682 13.6565 75.0825 14.1041C75.4831 14.5517 76.0601 14.8005 76.6606 14.7847ZM77.7602 12.0308H75.4868C75.4824 11.7202 75.6038 11.421 75.8234 11.2013C76.043 10.9816 76.3421 10.8601 76.6527 10.8643C76.959 10.8575 77.2538 10.9803 77.4647 11.2024C77.6756 11.4245 77.7829 11.7253 77.7602 12.0308Z" fill="white"/>
<path fill-rule="evenodd" clip-rule="evenodd" d="M82.3804 10.1948H84.4106C85.2915 10.1948 85.8081 10.6411 85.8081 11.3398C85.8109 11.7967 85.4937 12.1933 85.0474 12.291V12.3613C85.5935 12.3958 86.0168 12.8522 86.0103 13.3994C86.0103 14.185 85.4194 14.6977 84.4312 14.6977H82.3804V10.1948ZM83.2612 10.877V12.043H84.1421C84.6792 12.043 84.936 11.8364 84.936 11.4556C84.936 11.1045 84.7124 10.8769 84.2407 10.8769L83.2612 10.877ZM83.2612 14.0156V12.6963L84.2036 12.6963C84.8033 12.6963 85.1216 12.9072 85.1216 13.3579C85.1216 13.7837 84.8404 14.0156 84.315 14.0156H83.2612Z" fill="white"/>
</svg>
