<svg xmlns="http://www.w3.org/2000/svg" xmlns:xlink="http://www.w3.org/1999/xlink" width="30" height="89" viewBox="0 0 30 89">
  <defs>
    <linearGradient id="linear-gradient" x1="0.5" x2="0.5" y2="1" gradientUnits="objectBoundingBox">
      <stop offset="0" stop-color="#fff" stop-opacity="0.302"/>
      <stop offset="1" stop-color="#fff" stop-opacity="0"/>
    </linearGradient>
  </defs>
  <path id="Triangle_Copy_3" data-name="Triangle Copy 3" d="M44.5,0,89,30H0Z" transform="translate(30) rotate(90)" fill="url(#linear-gradient)"/>
</svg>
